-------------------------------------------------------------------------------
Test set: com.amazon.ecs.springbootapp.springbootapp.SpringbootappApplicationTests
-------------------------------------------------------------------------------
Tests run: 1, Failures: 0, Errors: 0, Skipped: 0, Time elapsed: 2.831 s - in com.amazon.ecs.springbootapp.springbootapp.SpringbootappApplicationTests
